$('#uni2').empty();
for(index in jobObject2){
  $('<input />', { type: 'radio', id: 'cb'+id,name:'jobs', value: jobObject2[index],background:'green' }).appendTo(container);
  $('<label />', { 'for': 'cb'+id,id: 'lcb'+id , text: jobObject2[index] }).appendTo(container);
  id=id+1;
  //select3.options[select3.options.length]=new Option(jobObject2[index],jobObject2[index]);
  <% color.forEach(function(cl){%>
        var lr='<%=cl.job%>';
        console.log(lr);
        console.log(jobObject2[index]);
        if(lr==jobObject2[index])
        {
          var cr='<%=cl.code%>';
          $("#" + "lcb"+(id-1)).css("color", "black");
          document.getElementById("lcb"+(id-1)).style.background=cr;
          document.getElementById("lcb"+(id-1)).style.border="solid";
          document.getElementById("lcb"+(id-1)).style.borderColor=cr;
        }
  <%})%>
}
